digraph "DataStructure/Stack/ArrayStack.hpp"
{
 // LATEX_PDF_SIZE
  edge [fontname="Helvetica",fontsize="10",labelfontname="Helvetica",labelfontsize="10"];
  node [fontname="Helvetica",fontsize="10",shape=record];
  Node1 [label="DataStructure/Stack\l/ArrayStack.hpp",height=0.2,width=0.4,color="black", fillcolor="grey75", style="filled", fontcolor="black",tooltip=" "];
  Node1 -> Node2 [dir="back",color="midnightblue",fontsize="10",style="solid",fontname="Helvetica"];
  Node2 [label="DataStructure/Stack\l/StackTester.hpp",height=0.2,width=0.4,color="black", fillcolor="white", style="filled",URL="$StackTester_8hpp.html",tooltip=" "];
  Node2 -> Node3 [dir="back",color="midnightblue",fontsize="10",style="solid",fontname="Helvetica"];
  Node3 [label="main.cpp",height=0.2,width=0.4,color="black", fillcolor="white", style="filled",URL="$main_8cpp.html",tooltip=" "];
  Node1 -> Node4 [dir="back",color="midnightblue",fontsize="10",style="solid",fontname="Helvetica"];
  Node4 [label="TestPrograms/Program\l_Stack.hpp",height=0.2,width=0.4,color="black", fillcolor="white", style="filled",URL="$Program__Stack_8hpp.html",tooltip=" "];
  Node4 -> Node3 [dir="back",color="midnightblue",fontsize="10",style="solid",fontname="Helvetica"];
  Node4 -> Node5 [dir="back",color="midnightblue",fontsize="10",style="solid",fontname="Helvetica"];
  Node5 [label="TestPrograms/Program\l_Stack.cpp",height=0.2,width=0.4,color="black", fillcolor="white", style="filled",URL="$Program__Stack_8cpp.html",tooltip=" "];
}
