digraph "DataStructure/BinarySearchTree/BinarySearchTreeNode.hpp"
{
 // LATEX_PDF_SIZE
  edge [fontname="Helvetica",fontsize="10",labelfontname="Helvetica",labelfontsize="10"];
  node [fontname="Helvetica",fontsize="10",shape=record];
  Node1 [label="DataStructure/BinarySearch\lTree/BinarySearchTreeNode.hpp",height=0.2,width=0.4,color="black", fillcolor="grey75", style="filled", fontcolor="black",tooltip=" "];
  Node1 -> Node2 [dir="back",color="midnightblue",fontsize="10",style="solid",fontname="Helvetica"];
  Node2 [label="DataStructure/BinarySearch\lTree/BinarySearchTree.hpp",height=0.2,width=0.4,color="black", fillcolor="white", style="filled",URL="$BinarySearchTree_8hpp.html",tooltip=" "];
  Node2 -> Node3 [dir="back",color="midnightblue",fontsize="10",style="solid",fontname="Helvetica"];
  Node3 [label="DataStructure/BinarySearch\lTree/BinarySearchTreeTester.hpp",height=0.2,width=0.4,color="black", fillcolor="white", style="filled",URL="$BinarySearchTreeTester_8hpp.html",tooltip=" "];
  Node3 -> Node4 [dir="back",color="midnightblue",fontsize="10",style="solid",fontname="Helvetica"];
  Node4 [label="main.cpp",height=0.2,width=0.4,color="black", fillcolor="white", style="filled",URL="$main_8cpp.html",tooltip=" "];
  Node2 -> Node5 [dir="back",color="midnightblue",fontsize="10",style="solid",fontname="Helvetica"];
  Node5 [label="TestPrograms/Program\l_BST.hpp",height=0.2,width=0.4,color="black", fillcolor="white", style="filled",URL="$Program__BST_8hpp.html",tooltip=" "];
  Node5 -> Node4 [dir="back",color="midnightblue",fontsize="10",style="solid",fontname="Helvetica"];
  Node5 -> Node6 [dir="back",color="midnightblue",fontsize="10",style="solid",fontname="Helvetica"];
  Node6 [label="TestPrograms/Program\l_BST.cpp",height=0.2,width=0.4,color="black", fillcolor="white", style="filled",URL="$Program__BST_8cpp.html",tooltip=" "];
  Node1 -> Node3 [dir="back",color="midnightblue",fontsize="10",style="solid",fontname="Helvetica"];
}
