digraph "Program_HT"
{
 // LATEX_PDF_SIZE
  edge [fontname="Helvetica",fontsize="10",labelfontname="Helvetica",labelfontsize="10"];
  node [fontname="Helvetica",fontsize="10",shape=record];
  Node1 [label="Program_HT",height=0.2,width=0.4,color="black", fillcolor="grey75", style="filled", fontcolor="black",tooltip="A simple program to test the HashTable."];
  Node2 -> Node1 [dir="back",color="darkorchid3",fontsize="10",style="dashed",label=" m_data" ,fontname="Helvetica"];
  Node2 [label="HashTable\< char \>",height=0.2,width=0.4,color="black", fillcolor="white", style="filled",URL="$classHashTable.html",tooltip=" "];
  Node3 -> Node2 [dir="back",color="darkorchid3",fontsize="10",style="dashed",label=" m_table" ,fontname="Helvetica"];
  Node3 [label="SmartTable\< HashItem\l\< char \> \>",height=0.2,width=0.4,color="black", fillcolor="white", style="filled",URL="$classSmartTable.html",tooltip=" "];
  Node4 -> Node3 [dir="back",color="darkorchid3",fontsize="10",style="dashed",label=" m_array" ,fontname="Helvetica"];
  Node4 [label="SmartTableNode\< HashItem\l\< char \> \>",height=0.2,width=0.4,color="black", fillcolor="white", style="filled",URL="$structSmartTableNode.html",tooltip=" "];
  Node5 -> Node4 [dir="back",color="darkorchid3",fontsize="10",style="dashed",label=" data" ,fontname="Helvetica"];
  Node5 [label="HashItem\< char \>",height=0.2,width=0.4,color="black", fillcolor="white", style="filled",URL="$structHashItem.html",tooltip=" "];
}
