digraph "SmartDynamicArray&lt; T &gt;"
{
 // LATEX_PDF_SIZE
  edge [fontname="Helvetica",fontsize="10",labelfontname="Helvetica",labelfontsize="10"];
  node [fontname="Helvetica",fontsize="10",shape=record];
  Node1 [label="SmartDynamicArray\< T \>",height=0.2,width=0.4,color="black", fillcolor="grey75", style="filled", fontcolor="black",tooltip="A data structure that wraps a dynamic array."];
  Node2 -> Node1 [dir="back",color="midnightblue",fontsize="10",style="solid",fontname="Helvetica"];
  Node2 [label="ILinearDataStructure\< T \>",height=0.2,width=0.4,color="black", fillcolor="white", style="filled",URL="$classILinearDataStructure.html",tooltip="An interface of methods that our linear data structures should have."];
}
