digraph "DataStructure/HashTable" {
  compound=true
  node [ fontsize="10", fontname="Helvetica"];
  edge [ labelfontsize="10", labelfontname="Helvetica"];
  subgraph clusterdir_61f8caed08096df072032ac640f6feca {
    graph [ bgcolor="#ddddee", pencolor="black", label="DataStructure" fontname="Helvetica", fontsize="10", URL="dir_61f8caed08096df072032ac640f6feca.html"]
  dir_8396f48a7548cbb5178e30a4e8035af6 [shape=box, label="HashTable", style="filled", fillcolor="#eeeeff", pencolor="black", URL="dir_8396f48a7548cbb5178e30a4e8035af6.html"];
  }
  dir_d403198d2aa38de87971f2789d60a3dd [shape=box label="Exceptions" URL="dir_d403198d2aa38de87971f2789d60a3dd.html"];
  dir_b05a5fa85f84bfc9013183c9d87f9a36 [shape=box label="Utilities" URL="dir_b05a5fa85f84bfc9013183c9d87f9a36.html"];
  dir_637a9103604c27616f1c15f6b161d1ab [shape=box label="cutest" URL="dir_637a9103604c27616f1c15f6b161d1ab.html"];
  dir_1e82a1e4a3c2ade43ab2a99fad8ca4da [shape=box label="SmartTable" URL="dir_1e82a1e4a3c2ade43ab2a99fad8ca4da.html"];
  dir_8396f48a7548cbb5178e30a4e8035af6->dir_d403198d2aa38de87971f2789d60a3dd [headlabel="3", labeldistance=1.5 headhref="dir_000003_000011.html"];
  dir_8396f48a7548cbb5178e30a4e8035af6->dir_b05a5fa85f84bfc9013183c9d87f9a36 [headlabel="3", labeldistance=1.5 headhref="dir_000003_000021.html"];
  dir_8396f48a7548cbb5178e30a4e8035af6->dir_637a9103604c27616f1c15f6b161d1ab [headlabel="1", labeldistance=1.5 headhref="dir_000003_000000.html"];
  dir_8396f48a7548cbb5178e30a4e8035af6->dir_1e82a1e4a3c2ade43ab2a99fad8ca4da [headlabel="1", labeldistance=1.5 headhref="dir_000003_000009.html"];
  dir_637a9103604c27616f1c15f6b161d1ab->dir_b05a5fa85f84bfc9013183c9d87f9a36 [headlabel="2", labeldistance=1.5 headhref="dir_000000_000021.html"];
  dir_1e82a1e4a3c2ade43ab2a99fad8ca4da->dir_d403198d2aa38de87971f2789d60a3dd [headlabel="10", labeldistance=1.5 headhref="dir_000009_000011.html"];
  dir_1e82a1e4a3c2ade43ab2a99fad8ca4da->dir_b05a5fa85f84bfc9013183c9d87f9a36 [headlabel="4", labeldistance=1.5 headhref="dir_000009_000021.html"];
  dir_1e82a1e4a3c2ade43ab2a99fad8ca4da->dir_637a9103604c27616f1c15f6b161d1ab [headlabel="1", labeldistance=1.5 headhref="dir_000009_000000.html"];
}
