digraph "DataStructure" {
  compound=true
  node [ fontsize="10", fontname="Helvetica"];
  edge [ labelfontsize="10", labelfontname="Helvetica"];
  subgraph clusterdir_61f8caed08096df072032ac640f6feca {
    graph [ bgcolor="#eeeeff", pencolor="black", label="" URL="dir_61f8caed08096df072032ac640f6feca.html"];
    dir_61f8caed08096df072032ac640f6feca [shape=plaintext label="DataStructure"];
    dir_6ca12d504933556f9ebd2078a6fff522 [shape=box label="BinarySearchTree" color="black" fillcolor="white" style="filled" URL="dir_6ca12d504933556f9ebd2078a6fff522.html"];
    dir_8396f48a7548cbb5178e30a4e8035af6 [shape=box label="HashTable" color="black" fillcolor="white" style="filled" URL="dir_8396f48a7548cbb5178e30a4e8035af6.html"];
    dir_a43cec759ea38d43c8f2ec0558a8e928 [shape=box label="Interfaces" color="black" fillcolor="white" style="filled" URL="dir_a43cec759ea38d43c8f2ec0558a8e928.html"];
    dir_fd352d12eaba61d3c6f72f29695996db [shape=box label="LinkedList" color="black" fillcolor="white" style="filled" URL="dir_fd352d12eaba61d3c6f72f29695996db.html"];
    dir_60b20b26d41372b03f9166392916acf8 [shape=box label="Queue" color="black" fillcolor="white" style="filled" URL="dir_60b20b26d41372b03f9166392916acf8.html"];
    dir_c5906fd827a922de9e18cb8f121642dc [shape=box label="SmartDynamicArray" color="black" fillcolor="white" style="filled" URL="dir_c5906fd827a922de9e18cb8f121642dc.html"];
    dir_ef468b6e1a24a7dc26695229282bd1ed [shape=box label="SmartFixedArray" color="black" fillcolor="white" style="filled" URL="dir_ef468b6e1a24a7dc26695229282bd1ed.html"];
    dir_1e82a1e4a3c2ade43ab2a99fad8ca4da [shape=box label="SmartTable" color="black" fillcolor="white" style="filled" URL="dir_1e82a1e4a3c2ade43ab2a99fad8ca4da.html"];
    dir_e9ea03c9e66695738ddb0f7290463054 [shape=box label="Stack" color="black" fillcolor="white" style="filled" URL="dir_e9ea03c9e66695738ddb0f7290463054.html"];
  }
  dir_d403198d2aa38de87971f2789d60a3dd [shape=box label="Exceptions" URL="dir_d403198d2aa38de87971f2789d60a3dd.html"];
  dir_b05a5fa85f84bfc9013183c9d87f9a36 [shape=box label="Utilities" URL="dir_b05a5fa85f84bfc9013183c9d87f9a36.html"];
  dir_637a9103604c27616f1c15f6b161d1ab [shape=box label="cutest" URL="dir_637a9103604c27616f1c15f6b161d1ab.html"];
  dir_ef468b6e1a24a7dc26695229282bd1ed->dir_d403198d2aa38de87971f2789d60a3dd [headlabel="10", labeldistance=1.5 headhref="dir_000008_000011.html"];
  dir_ef468b6e1a24a7dc26695229282bd1ed->dir_b05a5fa85f84bfc9013183c9d87f9a36 [headlabel="4", labeldistance=1.5 headhref="dir_000008_000021.html"];
  dir_ef468b6e1a24a7dc26695229282bd1ed->dir_637a9103604c27616f1c15f6b161d1ab [headlabel="1", labeldistance=1.5 headhref="dir_000008_000000.html"];
  dir_ef468b6e1a24a7dc26695229282bd1ed->dir_a43cec759ea38d43c8f2ec0558a8e928 [headlabel="1", labeldistance=1.5 headhref="dir_000008_000004.html"];
  dir_8396f48a7548cbb5178e30a4e8035af6->dir_d403198d2aa38de87971f2789d60a3dd [headlabel="3", labeldistance=1.5 headhref="dir_000003_000011.html"];
  dir_8396f48a7548cbb5178e30a4e8035af6->dir_b05a5fa85f84bfc9013183c9d87f9a36 [headlabel="3", labeldistance=1.5 headhref="dir_000003_000021.html"];
  dir_8396f48a7548cbb5178e30a4e8035af6->dir_637a9103604c27616f1c15f6b161d1ab [headlabel="1", labeldistance=1.5 headhref="dir_000003_000000.html"];
  dir_8396f48a7548cbb5178e30a4e8035af6->dir_1e82a1e4a3c2ade43ab2a99fad8ca4da [headlabel="1", labeldistance=1.5 headhref="dir_000003_000009.html"];
  dir_60b20b26d41372b03f9166392916acf8->dir_d403198d2aa38de87971f2789d60a3dd [headlabel="10", labeldistance=1.5 headhref="dir_000006_000011.html"];
  dir_60b20b26d41372b03f9166392916acf8->dir_fd352d12eaba61d3c6f72f29695996db [headlabel="1", labeldistance=1.5 headhref="dir_000006_000005.html"];
  dir_60b20b26d41372b03f9166392916acf8->dir_b05a5fa85f84bfc9013183c9d87f9a36 [headlabel="4", labeldistance=1.5 headhref="dir_000006_000021.html"];
  dir_60b20b26d41372b03f9166392916acf8->dir_637a9103604c27616f1c15f6b161d1ab [headlabel="1", labeldistance=1.5 headhref="dir_000006_000000.html"];
  dir_60b20b26d41372b03f9166392916acf8->dir_c5906fd827a922de9e18cb8f121642dc [headlabel="1", labeldistance=1.5 headhref="dir_000006_000007.html"];
  dir_fd352d12eaba61d3c6f72f29695996db->dir_d403198d2aa38de87971f2789d60a3dd [headlabel="10", labeldistance=1.5 headhref="dir_000005_000011.html"];
  dir_fd352d12eaba61d3c6f72f29695996db->dir_b05a5fa85f84bfc9013183c9d87f9a36 [headlabel="3", labeldistance=1.5 headhref="dir_000005_000021.html"];
  dir_fd352d12eaba61d3c6f72f29695996db->dir_637a9103604c27616f1c15f6b161d1ab [headlabel="1", labeldistance=1.5 headhref="dir_000005_000000.html"];
  dir_fd352d12eaba61d3c6f72f29695996db->dir_a43cec759ea38d43c8f2ec0558a8e928 [headlabel="1", labeldistance=1.5 headhref="dir_000005_000004.html"];
  dir_6ca12d504933556f9ebd2078a6fff522->dir_d403198d2aa38de87971f2789d60a3dd [headlabel="6", labeldistance=1.5 headhref="dir_000002_000011.html"];
  dir_6ca12d504933556f9ebd2078a6fff522->dir_b05a5fa85f84bfc9013183c9d87f9a36 [headlabel="5", labeldistance=1.5 headhref="dir_000002_000021.html"];
  dir_6ca12d504933556f9ebd2078a6fff522->dir_637a9103604c27616f1c15f6b161d1ab [headlabel="1", labeldistance=1.5 headhref="dir_000002_000000.html"];
  dir_637a9103604c27616f1c15f6b161d1ab->dir_b05a5fa85f84bfc9013183c9d87f9a36 [headlabel="2", labeldistance=1.5 headhref="dir_000000_000021.html"];
  dir_c5906fd827a922de9e18cb8f121642dc->dir_d403198d2aa38de87971f2789d60a3dd [headlabel="10", labeldistance=1.5 headhref="dir_000007_000011.html"];
  dir_c5906fd827a922de9e18cb8f121642dc->dir_b05a5fa85f84bfc9013183c9d87f9a36 [headlabel="4", labeldistance=1.5 headhref="dir_000007_000021.html"];
  dir_c5906fd827a922de9e18cb8f121642dc->dir_637a9103604c27616f1c15f6b161d1ab [headlabel="1", labeldistance=1.5 headhref="dir_000007_000000.html"];
  dir_c5906fd827a922de9e18cb8f121642dc->dir_a43cec759ea38d43c8f2ec0558a8e928 [headlabel="1", labeldistance=1.5 headhref="dir_000007_000004.html"];
  dir_1e82a1e4a3c2ade43ab2a99fad8ca4da->dir_d403198d2aa38de87971f2789d60a3dd [headlabel="10", labeldistance=1.5 headhref="dir_000009_000011.html"];
  dir_1e82a1e4a3c2ade43ab2a99fad8ca4da->dir_b05a5fa85f84bfc9013183c9d87f9a36 [headlabel="4", labeldistance=1.5 headhref="dir_000009_000021.html"];
  dir_1e82a1e4a3c2ade43ab2a99fad8ca4da->dir_637a9103604c27616f1c15f6b161d1ab [headlabel="1", labeldistance=1.5 headhref="dir_000009_000000.html"];
  dir_1e82a1e4a3c2ade43ab2a99fad8ca4da->dir_c5906fd827a922de9e18cb8f121642dc [headlabel="1", labeldistance=1.5 headhref="dir_000009_000007.html"];
  dir_1e82a1e4a3c2ade43ab2a99fad8ca4da->dir_a43cec759ea38d43c8f2ec0558a8e928 [headlabel="1", labeldistance=1.5 headhref="dir_000009_000004.html"];
  dir_e9ea03c9e66695738ddb0f7290463054->dir_d403198d2aa38de87971f2789d60a3dd [headlabel="10", labeldistance=1.5 headhref="dir_000010_000011.html"];
  dir_e9ea03c9e66695738ddb0f7290463054->dir_fd352d12eaba61d3c6f72f29695996db [headlabel="1", labeldistance=1.5 headhref="dir_000010_000005.html"];
  dir_e9ea03c9e66695738ddb0f7290463054->dir_b05a5fa85f84bfc9013183c9d87f9a36 [headlabel="4", labeldistance=1.5 headhref="dir_000010_000021.html"];
  dir_e9ea03c9e66695738ddb0f7290463054->dir_637a9103604c27616f1c15f6b161d1ab [headlabel="1", labeldistance=1.5 headhref="dir_000010_000000.html"];
  dir_e9ea03c9e66695738ddb0f7290463054->dir_c5906fd827a922de9e18cb8f121642dc [headlabel="1", labeldistance=1.5 headhref="dir_000010_000007.html"];
}
