digraph "DataStructure/LinkedList" {
  compound=true
  node [ fontsize="10", fontname="Helvetica"];
  edge [ labelfontsize="10", labelfontname="Helvetica"];
  subgraph clusterdir_61f8caed08096df072032ac640f6feca {
    graph [ bgcolor="#ddddee", pencolor="black", label="DataStructure" fontname="Helvetica", fontsize="10", URL="dir_61f8caed08096df072032ac640f6feca.html"]
  dir_fd352d12eaba61d3c6f72f29695996db [shape=box, label="LinkedList", style="filled", fillcolor="#eeeeff", pencolor="black", URL="dir_fd352d12eaba61d3c6f72f29695996db.html"];
  }
  dir_d403198d2aa38de87971f2789d60a3dd [shape=box label="Exceptions" URL="dir_d403198d2aa38de87971f2789d60a3dd.html"];
  dir_b05a5fa85f84bfc9013183c9d87f9a36 [shape=box label="Utilities" URL="dir_b05a5fa85f84bfc9013183c9d87f9a36.html"];
  dir_637a9103604c27616f1c15f6b161d1ab [shape=box label="cutest" URL="dir_637a9103604c27616f1c15f6b161d1ab.html"];
  dir_a43cec759ea38d43c8f2ec0558a8e928 [shape=box label="Interfaces" URL="dir_a43cec759ea38d43c8f2ec0558a8e928.html"];
  dir_fd352d12eaba61d3c6f72f29695996db->dir_d403198d2aa38de87971f2789d60a3dd [headlabel="10", labeldistance=1.5 headhref="dir_000005_000011.html"];
  dir_fd352d12eaba61d3c6f72f29695996db->dir_b05a5fa85f84bfc9013183c9d87f9a36 [headlabel="3", labeldistance=1.5 headhref="dir_000005_000021.html"];
  dir_fd352d12eaba61d3c6f72f29695996db->dir_637a9103604c27616f1c15f6b161d1ab [headlabel="1", labeldistance=1.5 headhref="dir_000005_000000.html"];
  dir_fd352d12eaba61d3c6f72f29695996db->dir_a43cec759ea38d43c8f2ec0558a8e928 [headlabel="1", labeldistance=1.5 headhref="dir_000005_000004.html"];
  dir_637a9103604c27616f1c15f6b161d1ab->dir_b05a5fa85f84bfc9013183c9d87f9a36 [headlabel="2", labeldistance=1.5 headhref="dir_000000_000021.html"];
}
