digraph "Exceptions/ItemNotFoundException.hpp"
{
 // LATEX_PDF_SIZE
  edge [fontname="Helvetica",fontsize="10",labelfontname="Helvetica",labelfontsize="10"];
  node [fontname="Helvetica",fontsize="10",shape=record];
  Node1 [label="Exceptions/ItemNotFoundException.hpp",height=0.2,width=0.4,color="black", fillcolor="grey75", style="filled", fontcolor="black",tooltip=" "];
  Node1 -> Node2 [dir="back",color="midnightblue",fontsize="10",style="solid",fontname="Helvetica"];
  Node2 [label="DataStructure/SmartTable\l/SmartTable.hpp",height=0.2,width=0.4,color="black", fillcolor="white", style="filled",URL="$SmartTable_8hpp.html",tooltip=" "];
  Node2 -> Node3 [dir="back",color="midnightblue",fontsize="10",style="solid",fontname="Helvetica"];
  Node3 [label="DataStructure/HashTable\l/HashTable.hpp",height=0.2,width=0.4,color="black", fillcolor="white", style="filled",URL="$HashTable_8hpp.html",tooltip=" "];
  Node3 -> Node4 [dir="back",color="midnightblue",fontsize="10",style="solid",fontname="Helvetica"];
  Node4 [label="DataStructure/HashTable\l/HashTableTester.hpp",height=0.2,width=0.4,color="black", fillcolor="white", style="filled",URL="$HashTableTester_8hpp.html",tooltip=" "];
  Node4 -> Node5 [dir="back",color="midnightblue",fontsize="10",style="solid",fontname="Helvetica"];
  Node5 [label="main.cpp",height=0.2,width=0.4,color="black", fillcolor="white", style="filled",URL="$main_8cpp.html",tooltip=" "];
  Node3 -> Node6 [dir="back",color="midnightblue",fontsize="10",style="solid",fontname="Helvetica"];
  Node6 [label="TestPrograms/Program\l_HT.hpp",height=0.2,width=0.4,color="black", fillcolor="white", style="filled",URL="$Program__HT_8hpp.html",tooltip=" "];
  Node6 -> Node5 [dir="back",color="midnightblue",fontsize="10",style="solid",fontname="Helvetica"];
  Node6 -> Node7 [dir="back",color="midnightblue",fontsize="10",style="solid",fontname="Helvetica"];
  Node7 [label="TestPrograms/Program\l_HT.cpp",height=0.2,width=0.4,color="black", fillcolor="white", style="filled",URL="$Program__HT_8cpp.html",tooltip=" "];
  Node1 -> Node8 [dir="back",color="midnightblue",fontsize="10",style="solid",fontname="Helvetica"];
  Node8 [label="DataStructure/LinkedList\l/LinkedList.hpp",height=0.2,width=0.4,color="black", fillcolor="white", style="filled",URL="$LinkedList_8hpp.html",tooltip=" "];
  Node8 -> Node9 [dir="back",color="midnightblue",fontsize="10",style="solid",fontname="Helvetica"];
  Node9 [label="DataStructure/LinkedList\l/LinkedListTester.hpp",height=0.2,width=0.4,color="black", fillcolor="white", style="filled",URL="$LinkedListTester_8hpp.html",tooltip=" "];
  Node9 -> Node5 [dir="back",color="midnightblue",fontsize="10",style="solid",fontname="Helvetica"];
  Node8 -> Node10 [dir="back",color="midnightblue",fontsize="10",style="solid",fontname="Helvetica"];
  Node10 [label="DataStructure/Queue\l/LinkedQueue.hpp",height=0.2,width=0.4,color="black", fillcolor="white", style="filled",URL="$LinkedQueue_8hpp.html",tooltip=" "];
  Node10 -> Node11 [dir="back",color="midnightblue",fontsize="10",style="solid",fontname="Helvetica"];
  Node11 [label="DataStructure/Queue\l/QueueTester.hpp",height=0.2,width=0.4,color="black", fillcolor="white", style="filled",URL="$QueueTester_8hpp.html",tooltip=" "];
  Node11 -> Node5 [dir="back",color="midnightblue",fontsize="10",style="solid",fontname="Helvetica"];
  Node10 -> Node12 [dir="back",color="midnightblue",fontsize="10",style="solid",fontname="Helvetica"];
  Node12 [label="TestPrograms/Program\l_Queue.hpp",height=0.2,width=0.4,color="black", fillcolor="white", style="filled",URL="$Program__Queue_8hpp.html",tooltip=" "];
  Node12 -> Node5 [dir="back",color="midnightblue",fontsize="10",style="solid",fontname="Helvetica"];
  Node12 -> Node13 [dir="back",color="midnightblue",fontsize="10",style="solid",fontname="Helvetica"];
  Node13 [label="TestPrograms/Program\l_Queue.cpp",height=0.2,width=0.4,color="black", fillcolor="white", style="filled",URL="$Program__Queue_8cpp.html",tooltip=" "];
  Node8 -> Node14 [dir="back",color="midnightblue",fontsize="10",style="solid",fontname="Helvetica"];
  Node14 [label="DataStructure/Stack\l/LinkedStack.hpp",height=0.2,width=0.4,color="black", fillcolor="white", style="filled",URL="$LinkedStack_8hpp.html",tooltip=" "];
  Node14 -> Node15 [dir="back",color="midnightblue",fontsize="10",style="solid",fontname="Helvetica"];
  Node15 [label="DataStructure/Stack\l/StackTester.hpp",height=0.2,width=0.4,color="black", fillcolor="white", style="filled",URL="$StackTester_8hpp.html",tooltip=" "];
  Node15 -> Node5 [dir="back",color="midnightblue",fontsize="10",style="solid",fontname="Helvetica"];
  Node14 -> Node16 [dir="back",color="midnightblue",fontsize="10",style="solid",fontname="Helvetica"];
  Node16 [label="TestPrograms/Program\l_Stack.hpp",height=0.2,width=0.4,color="black", fillcolor="white", style="filled",URL="$Program__Stack_8hpp.html",tooltip=" "];
  Node16 -> Node5 [dir="back",color="midnightblue",fontsize="10",style="solid",fontname="Helvetica"];
  Node16 -> Node17 [dir="back",color="midnightblue",fontsize="10",style="solid",fontname="Helvetica"];
  Node17 [label="TestPrograms/Program\l_Stack.cpp",height=0.2,width=0.4,color="black", fillcolor="white", style="filled",URL="$Program__Stack_8cpp.html",tooltip=" "];
  Node8 -> Node18 [dir="back",color="midnightblue",fontsize="10",style="solid",fontname="Helvetica"];
  Node18 [label="TestPrograms/Program\l_LL.hpp",height=0.2,width=0.4,color="black", fillcolor="white", style="filled",URL="$Program__LL_8hpp.html",tooltip=" "];
  Node18 -> Node5 [dir="back",color="midnightblue",fontsize="10",style="solid",fontname="Helvetica"];
  Node18 -> Node19 [dir="back",color="midnightblue",fontsize="10",style="solid",fontname="Helvetica"];
  Node19 [label="TestPrograms/Program\l_LL.cpp",height=0.2,width=0.4,color="black", fillcolor="white", style="filled",URL="$Program__LL_8cpp.html",tooltip=" "];
  Node1 -> Node20 [dir="back",color="midnightblue",fontsize="10",style="solid",fontname="Helvetica"];
  Node20 [label="DataStructure/SmartDynamic\lArray/SmartDynamicArray.hpp",height=0.2,width=0.4,color="black", fillcolor="white", style="filled",URL="$SmartDynamicArray_8hpp.html",tooltip=" "];
  Node20 -> Node21 [dir="back",color="midnightblue",fontsize="10",style="solid",fontname="Helvetica"];
  Node21 [label="DataStructure/Queue\l/ArrayQueue.hpp",height=0.2,width=0.4,color="black", fillcolor="white", style="filled",URL="$ArrayQueue_8hpp.html",tooltip=" "];
  Node21 -> Node11 [dir="back",color="midnightblue",fontsize="10",style="solid",fontname="Helvetica"];
  Node21 -> Node12 [dir="back",color="midnightblue",fontsize="10",style="solid",fontname="Helvetica"];
  Node20 -> Node22 [dir="back",color="midnightblue",fontsize="10",style="solid",fontname="Helvetica"];
  Node22 [label="DataStructure/SmartDynamic\lArray/SmartDynamicArrayTester.hpp",height=0.2,width=0.4,color="black", fillcolor="white", style="filled",URL="$SmartDynamicArrayTester_8hpp.html",tooltip=" "];
  Node22 -> Node5 [dir="back",color="midnightblue",fontsize="10",style="solid",fontname="Helvetica"];
  Node20 -> Node23 [dir="back",color="midnightblue",fontsize="10",style="solid",fontname="Helvetica"];
  Node23 [label="DataStructure/SmartTable\l/SmartTableTester.hpp",height=0.2,width=0.4,color="black", fillcolor="white", style="filled",URL="$SmartTableTester_8hpp.html",tooltip=" "];
  Node20 -> Node24 [dir="back",color="midnightblue",fontsize="10",style="solid",fontname="Helvetica"];
  Node24 [label="DataStructure/Stack\l/ArrayStack.hpp",height=0.2,width=0.4,color="black", fillcolor="white", style="filled",URL="$ArrayStack_8hpp.html",tooltip=" "];
  Node24 -> Node15 [dir="back",color="midnightblue",fontsize="10",style="solid",fontname="Helvetica"];
  Node24 -> Node16 [dir="back",color="midnightblue",fontsize="10",style="solid",fontname="Helvetica"];
  Node20 -> Node25 [dir="back",color="midnightblue",fontsize="10",style="solid",fontname="Helvetica"];
  Node25 [label="TestPrograms/Program\l_SDA.hpp",height=0.2,width=0.4,color="black", fillcolor="white", style="filled",URL="$Program__SDA_8hpp.html",tooltip=" "];
  Node25 -> Node5 [dir="back",color="midnightblue",fontsize="10",style="solid",fontname="Helvetica"];
  Node25 -> Node26 [dir="back",color="midnightblue",fontsize="10",style="solid",fontname="Helvetica"];
  Node26 [label="TestPrograms/Program\l_SDA.cpp",height=0.2,width=0.4,color="black", fillcolor="white", style="filled",URL="$Program__SDA_8cpp.html",tooltip=" "];
  Node1 -> Node27 [dir="back",color="midnightblue",fontsize="10",style="solid",fontname="Helvetica"];
  Node27 [label="DataStructure/SmartFixed\lArray/SmartFixedArray.hpp",height=0.2,width=0.4,color="black", fillcolor="white", style="filled",URL="$SmartFixedArray_8hpp.html",tooltip=" "];
  Node27 -> Node28 [dir="back",color="midnightblue",fontsize="10",style="solid",fontname="Helvetica"];
  Node28 [label="DataStructure/SmartFixed\lArray/SmartFixedArrayTester.hpp",height=0.2,width=0.4,color="black", fillcolor="white", style="filled",URL="$SmartFixedArrayTester_8hpp.html",tooltip=" "];
  Node28 -> Node5 [dir="back",color="midnightblue",fontsize="10",style="solid",fontname="Helvetica"];
  Node27 -> Node29 [dir="back",color="midnightblue",fontsize="10",style="solid",fontname="Helvetica"];
  Node29 [label="TestPrograms/Program\l_SFA.hpp",height=0.2,width=0.4,color="black", fillcolor="white", style="filled",URL="$Program__SFA_8hpp.html",tooltip=" "];
  Node29 -> Node5 [dir="back",color="midnightblue",fontsize="10",style="solid",fontname="Helvetica"];
  Node29 -> Node30 [dir="back",color="midnightblue",fontsize="10",style="solid",fontname="Helvetica"];
  Node30 [label="TestPrograms/Program\l_SFA.cpp",height=0.2,width=0.4,color="black", fillcolor="white", style="filled",URL="$Program__SFA_8cpp.html",tooltip=" "];
  Node1 -> Node31 [dir="back",color="midnightblue",fontsize="10",style="solid",fontname="Helvetica"];
  Node31 [label="TestPrograms/Program\l_BST.cpp",height=0.2,width=0.4,color="black", fillcolor="white", style="filled",URL="$Program__BST_8cpp.html",tooltip=" "];
  Node1 -> Node7 [dir="back",color="midnightblue",fontsize="10",style="solid",fontname="Helvetica"];
  Node1 -> Node19 [dir="back",color="midnightblue",fontsize="10",style="solid",fontname="Helvetica"];
  Node1 -> Node13 [dir="back",color="midnightblue",fontsize="10",style="solid",fontname="Helvetica"];
  Node1 -> Node26 [dir="back",color="midnightblue",fontsize="10",style="solid",fontname="Helvetica"];
  Node1 -> Node30 [dir="back",color="midnightblue",fontsize="10",style="solid",fontname="Helvetica"];
  Node1 -> Node17 [dir="back",color="midnightblue",fontsize="10",style="solid",fontname="Helvetica"];
}
